{
    "current_page": 1,
    "total_pages": 1000,
    "total_items": 6888,
    "photos": [
        {
            "id": 82962189,
            "user_id": 5941262,
            "name": "untitled",
            "description": "Fort Rosecrans National Cemetery in San Diego, California.",
            "camera": "Canon EOS 7D",
            "lens": null,
            "focal_length": "11",
            "iso": "100",
            "shutter_speed": "1/1000",
            "aperture": "4",
            "times_viewed": 44,
            "rating": 59,
            "status": 1,
            "created_at": "2014-09-11T18:24:53-04:00",
            "category": 8,
            "location": null,
            "latitude": 32.68269412284078,
            "longitude": -117.24411964416502,
            "taken_at": "2014-09-03T16:49:04-04:00",
            "hi_res_uploaded": 0,
            "for_sale": false,
            "width": 5111,
            "height": 2663,
            "votes_count": 4,
            "favorites_count": 2,
            "comments_count": 0,
            "nsfw": false,
            "sales_count": 0,
            "for_sale_date": null,
            "highest_rating": 59,
            "highest_rating_date": "2014-09-11T18:33:25-04:00",
            "license_type": 0,
            "converted": 27,
            "collections_count": 0,
            "crop_version": 8,
            "privacy": false,
            "image_url": "https://gp1.wac.edgecastcdn.net/806614/photos/photos.500px.net/82962189/ccbd9decb318a222318dabfe0ec06319c6669c05/2.jpg?v=8",
            "images": [
                {
                    "size": 2,
                    "url": "http://ppcdn.500px.org/82962189/ccbd9decb318a222318dabfe0ec06319c6669c05/2.jpg?v=8",
                    "https_url": "https://gp1.wac.edgecastcdn.net/806614/photos/photos.500px.net/82962189/ccbd9decb318a222318dabfe0ec06319c6669c05/2.jpg?v=8",
                    "format": "jpeg"
                }
            ],
            "url": "/photo/82962189/untitled-by-zach-ogie",
            "positive_votes_count": 4,
            "converted_bits": 27,
            "share_counts": {},
            "image_format": "jpeg",
            "user": {
                "id": 5941262,
                "username": "zachogie",
                "firstname": "Zach",
                "lastname": "Ogie",
                "city": "San Diego",
                "country": "United States",
                "usertype": 0,
                "fullname": "Zach Ogie",
                "userpic_url": "http://pacdn.500px.org/5941262/516536de6a77f64c863aeda0477f524d6b792e3a/1.jpg?10",
                "userpic_https_url": "https://gp1.wac.edgecastcdn.net/806614/avatars/avatars.500px.net/5941262/516536de6a77f64c863aeda0477f524d6b792e3a/1.jpg?10",
                "upgrade_status": 0,
                "affection": 1735,
                "followers_count": 285
            }
        },
        {
            "id": 82919317,
            "user_id": 566020,
            "name": "architecture ()",
            "description": null,
            "camera": "Canon EOS 7D",
            "lens": null,
            "focal_length": "30",
            "iso": "200",
            "shutter_speed": "1/500",
            "aperture": "8",
            "times_viewed": 0,
            "rating": 0,
            "status": 1,
            "created_at": "2014-09-11T11:45:18-04:00",
            "category": 0,
            "location": null,
            "latitude": null,
            "longitude": null,
            "taken_at": "2014-05-27T20:18:40-04:00",
            "hi_res_uploaded": 0,
            "for_sale": false,
            "width": 667,
            "height": 1000,
            "votes_count": 0,
            "favorites_count": 0,
            "comments_count": 0,
            "nsfw": false,
            "sales_count": 0,
            "for_sale_date": null,
            "highest_rating": 0,
            "highest_rating_date": null,
            "license_type": 0,
            "converted": 27,
            "collections_count": 0,
            "crop_version": 4,
            "privacy": false,
            "image_url": "https://gp1.wac.edgecastcdn.net/806614/photos/photos.500px.net/82919317/33cd7d4923ba744e091ebed0df993b7ef2e89771/2.jpg?v=4",
            "images": [
                {
                    "size": 2,
                    "url": "http://ppcdn.500px.org/82919317/33cd7d4923ba744e091ebed0df993b7ef2e89771/2.jpg?v=4",
                    "https_url": "https://gp1.wac.edgecastcdn.net/806614/photos/photos.500px.net/82919317/33cd7d4923ba744e091ebed0df993b7ef2e89771/2.jpg?v=4",
                    "format": "jpeg"
                }
            ],
            "url": "/photo/82919317/architecture-()-by-nicholas-klein",
            "positive_votes_count": 0,
            "converted_bits": 27,
            "share_counts": {},
            "image_format": "jpeg",
            "user": {
                "id": 566020,
                "username": "nicholasj309",
                "firstname": "Nicholas",
                "lastname": "Klein",
                "city": "Fort Wayne",
                "country": "America",
                "usertype": 0,
                "fullname": "Nicholas Klein",
                "userpic_url": "http://pacdn.500px.org/566020/4e46c094c7d2bd36bdcf2b3e28b95daa777bc3ba/1.jpg?127",
                "userpic_https_url": "https://gp1.wac.edgecastcdn.net/806614/avatars/avatars.500px.net/566020/4e46c094c7d2bd36bdcf2b3e28b95daa777bc3ba/1.jpg?127",
                "upgrade_status": 1,
                "affection": 25,
                "followers_count": 5
            }
        },
        {
            "id": 82902957,
            "user_id": 4524616,
            "name": "Untitled",
            "description": "",
            "camera": "Canon EOS 6D",
            "lens": "EF85mm f/1.8 USM",
            "focal_length": "85",
            "iso": "1000",
            "shutter_speed": "1/350",
            "aperture": "2.8",
            "times_viewed": 101,
            "rating": 67.3,
            "status": 1,
            "created_at": "2014-09-11T08:25:12-04:00",
            "category": 21,
            "location": null,
            "latitude": null,
            "longitude": null,
            "taken_at": "2014-09-08T05:07:36-04:00",
            "hi_res_uploaded": 0,
            "for_sale": false,
            "width": 4343,
            "height": 2895,
            "votes_count": 8,
            "favorites_count": 2,
            "comments_count": 2,
            "nsfw": false,
            "sales_count": 0,
            "for_sale_date": null,
            "highest_rating": 67.3,
            "highest_rating_date": "2014-09-11T21:44:01-04:00",
            "license_type": 0,
            "converted": 27,
            "collections_count": 0,
            "crop_version": 0,
            "privacy": false,
            "image_url": "https://gp1.wac.edgecastcdn.net/806614/photos/photos.500px.net/82902957/dd760fc5f60860a83eceb8b92e99e27a5c620f57/2.jpg?v=0",
            "images": [
                {
                    "size": 2,
                    "url": "http://ppcdn.500px.org/82902957/dd760fc5f60860a83eceb8b92e99e27a5c620f57/2.jpg?v=0",
                    "https_url": "https://gp1.wac.edgecastcdn.net/806614/photos/photos.500px.net/82902957/dd760fc5f60860a83eceb8b92e99e27a5c620f57/2.jpg?v=0",
                    "format": "jpeg"
                }
            ],
            "url": "/photo/82902957/untitled-by-zach-cowan",
            "positive_votes_count": 8,
            "converted_bits": 27,
            "share_counts": {},
            "image_format": "jpeg",
            "user": {
                "id": 4524616,
                "username": "zcowan91",
                "firstname": "Zach",
                "lastname": "Cowan",
                "city": "Bridgeport",
                "country": "United States",
                "usertype": 0,
                "fullname": "Zach Cowan",
                "userpic_url": "http://pacdn.500px.org/4524616/bb270d5a4c499b7a7ecf64d3228f61bdbaa3c564/1.jpg?2",
                "userpic_https_url": "https://gp1.wac.edgecastcdn.net/806614/avatars/avatars.500px.net/4524616/bb270d5a4c499b7a7ecf64d3228f61bdbaa3c564/1.jpg?2",
                "upgrade_status": 1,
                "affection": 3051,
                "followers_count": 79
            }
        }
    ]
}